<?xml version="1.0" encoding="utf-8"  standalone="no"?>
<svg 
 width="600" height="480"
 viewBox="0 0 600 480"
 xmlns="http://www.w3.org/2000/svg"
 xmlns:xlink="http://www.w3.org/1999/xlink"
>

<title>Gnuplot</title>
<desc>Produced by GNUPLOT 5.2 patchlevel 2 </desc>

<g id="gnuplot_canvas">

<rect x="0" y="0" width="600" height="480" fill="none"/>
<defs>

	<circle id='gpDot' r='0.5' stroke-width='0.5'/>
	<path id='gpPt0' stroke-width='0.222' stroke='currentColor' d='M-1,0 h2 M0,-1 v2'/>
	<path id='gpPt1' stroke-width='0.222' stroke='currentColor' d='M-1,-1 L1,1 M1,-1 L-1,1'/>
	<path id='gpPt2' stroke-width='0.222' stroke='currentColor' d='M-1,0 L1,0 M0,-1 L0,1 M-1,-1 L1,1 M-1,1 L1,-1'/>
	<rect id='gpPt3' stroke-width='0.222' stroke='currentColor' x='-1' y='-1' width='2' height='2'/>
	<rect id='gpPt4' stroke-width='0.222' stroke='currentColor' fill='currentColor' x='-1' y='-1' width='2' height='2'/>
	<circle id='gpPt5' stroke-width='0.222' stroke='currentColor' cx='0' cy='0' r='1'/>
	<use xlink:href='#gpPt5' id='gpPt6' fill='currentColor' stroke='none'/>
	<path id='gpPt7' stroke-width='0.222' stroke='currentColor' d='M0,-1.33 L-1.33,0.67 L1.33,0.67 z'/>
	<use xlink:href='#gpPt7' id='gpPt8' fill='currentColor' stroke='none'/>
	<use xlink:href='#gpPt7' id='gpPt9' stroke='currentColor' transform='rotate(180)'/>
	<use xlink:href='#gpPt9' id='gpPt10' fill='currentColor' stroke='none'/>
	<use xlink:href='#gpPt3' id='gpPt11' stroke='currentColor' transform='rotate(45)'/>
	<use xlink:href='#gpPt11' id='gpPt12' fill='currentColor' stroke='none'/>
	<path id='gpPt13' stroke-width='0.222' stroke='currentColor' d='M0,1.330 L1.265,0.411 L0.782,-1.067 L-0.782,-1.076 L-1.265,0.411 z'/>
	<use xlink:href='#gpPt13' id='gpPt14' fill='currentColor' stroke='none'/>
	<filter id='textbox' filterUnits='objectBoundingBox' x='0' y='0' height='1' width='1'>
	  <feFlood flood-color='white' flood-opacity='1' result='bgnd'/>
	  <feComposite in='SourceGraphic' in2='bgnd' operator='atop'/>
	</filter>
	<filter id='greybox' filterUnits='objectBoundingBox' x='0' y='0' height='1' width='1'>
	  <feFlood flood-color='lightgrey' flood-opacity='1' result='grey'/>
	  <feComposite in='SourceGraphic' in2='grey' operator='atop'/>
	</filter>
</defs>
<g fill="none" color="white" stroke="currentColor" stroke-width="1.00" stroke-linecap="butt" stroke-linejoin="miter">
</g>
<g fill="none" color="black" stroke="currentColor" stroke-width="1.00" stroke-linecap="butt" stroke-linejoin="miter">
</g>
<g fill="none" color="black" stroke="black" stroke-width="0.50" stroke-linecap="butt" stroke-linejoin="miter">
</g>
<g fill="none" color="gray" stroke="currentColor" stroke-width="0.50" stroke-linecap="butt" stroke-linejoin="miter">
	<path stroke='gray' stroke-dasharray='2,4' class="gridline"  d='M88.5,444.0 L507.2,444.0  '/></g>
<g fill="none" color="gray" stroke="gray" stroke-width="1.00" stroke-linecap="butt" stroke-linejoin="miter">
</g>
<g fill="none" color="black" stroke="currentColor" stroke-width="1.00" stroke-linecap="butt" stroke-linejoin="miter">
	<path stroke='black'  d='M88.5,444.0 L97.5,444.0  '/>	<g transform="translate(80.2,447.9)" stroke="none" fill="black" font-family="Arial" font-size="12.00"  text-anchor="end">
		<text><tspan font-family="Arial" > 0</tspan></text>
	</g>
</g>
<g fill="none" color="black" stroke="currentColor" stroke-width="1.00" stroke-linecap="butt" stroke-linejoin="miter">
</g>
<g fill="none" color="black" stroke="black" stroke-width="0.50" stroke-linecap="butt" stroke-linejoin="miter">
</g>
<g fill="none" color="gray" stroke="currentColor" stroke-width="0.50" stroke-linecap="butt" stroke-linejoin="miter">
	<path stroke='gray' stroke-dasharray='2,4' class="gridline"  d='M88.5,381.0 L507.2,381.0  '/></g>
<g fill="none" color="gray" stroke="gray" stroke-width="1.00" stroke-linecap="butt" stroke-linejoin="miter">
</g>
<g fill="none" color="black" stroke="currentColor" stroke-width="1.00" stroke-linecap="butt" stroke-linejoin="miter">
	<path stroke='black'  d='M88.5,381.0 L97.5,381.0  '/>	<g transform="translate(80.2,384.9)" stroke="none" fill="black" font-family="Arial" font-size="12.00"  text-anchor="end">
		<text><tspan font-family="Arial" > 5000</tspan></text>
	</g>
</g>
<g fill="none" color="black" stroke="currentColor" stroke-width="1.00" stroke-linecap="butt" stroke-linejoin="miter">
</g>
<g fill="none" color="black" stroke="black" stroke-width="0.50" stroke-linecap="butt" stroke-linejoin="miter">
</g>
<g fill="none" color="gray" stroke="currentColor" stroke-width="0.50" stroke-linecap="butt" stroke-linejoin="miter">
	<path stroke='gray' stroke-dasharray='2,4' class="gridline"  d='M88.5,318.0 L507.2,318.0  '/></g>
<g fill="none" color="gray" stroke="gray" stroke-width="1.00" stroke-linecap="butt" stroke-linejoin="miter">
</g>
<g fill="none" color="black" stroke="currentColor" stroke-width="1.00" stroke-linecap="butt" stroke-linejoin="miter">
	<path stroke='black'  d='M88.5,318.0 L97.5,318.0  '/>	<g transform="translate(80.2,321.9)" stroke="none" fill="black" font-family="Arial" font-size="12.00"  text-anchor="end">
		<text><tspan font-family="Arial" > 10000</tspan></text>
	</g>
</g>
<g fill="none" color="black" stroke="currentColor" stroke-width="1.00" stroke-linecap="butt" stroke-linejoin="miter">
</g>
<g fill="none" color="black" stroke="black" stroke-width="0.50" stroke-linecap="butt" stroke-linejoin="miter">
</g>
<g fill="none" color="gray" stroke="currentColor" stroke-width="0.50" stroke-linecap="butt" stroke-linejoin="miter">
	<path stroke='gray' stroke-dasharray='2,4' class="gridline"  d='M88.5,255.0 L507.2,255.0  '/></g>
<g fill="none" color="gray" stroke="gray" stroke-width="1.00" stroke-linecap="butt" stroke-linejoin="miter">
</g>
<g fill="none" color="black" stroke="currentColor" stroke-width="1.00" stroke-linecap="butt" stroke-linejoin="miter">
	<path stroke='black'  d='M88.5,255.0 L97.5,255.0  '/>	<g transform="translate(80.2,258.9)" stroke="none" fill="black" font-family="Arial" font-size="12.00"  text-anchor="end">
		<text><tspan font-family="Arial" > 15000</tspan></text>
	</g>
</g>
<g fill="none" color="black" stroke="currentColor" stroke-width="1.00" stroke-linecap="butt" stroke-linejoin="miter">
</g>
<g fill="none" color="black" stroke="black" stroke-width="0.50" stroke-linecap="butt" stroke-linejoin="miter">
</g>
<g fill="none" color="gray" stroke="currentColor" stroke-width="0.50" stroke-linecap="butt" stroke-linejoin="miter">
	<path stroke='gray' stroke-dasharray='2,4' class="gridline"  d='M88.5,192.1 L507.2,192.1  '/></g>
<g fill="none" color="gray" stroke="gray" stroke-width="1.00" stroke-linecap="butt" stroke-linejoin="miter">
</g>
<g fill="none" color="black" stroke="currentColor" stroke-width="1.00" stroke-linecap="butt" stroke-linejoin="miter">
	<path stroke='black'  d='M88.5,192.1 L97.5,192.1  '/>	<g transform="translate(80.2,196.0)" stroke="none" fill="black" font-family="Arial" font-size="12.00"  text-anchor="end">
		<text><tspan font-family="Arial" > 20000</tspan></text>
	</g>
</g>
<g fill="none" color="black" stroke="currentColor" stroke-width="1.00" stroke-linecap="butt" stroke-linejoin="miter">
</g>
<g fill="none" color="black" stroke="black" stroke-width="0.50" stroke-linecap="butt" stroke-linejoin="miter">
</g>
<g fill="none" color="gray" stroke="currentColor" stroke-width="0.50" stroke-linecap="butt" stroke-linejoin="miter">
	<path stroke='gray' stroke-dasharray='2,4' class="gridline"  d='M88.5,129.1 L96.8,129.1 M213.7,129.1 L507.2,129.1  '/></g>
<g fill="none" color="gray" stroke="gray" stroke-width="1.00" stroke-linecap="butt" stroke-linejoin="miter">
</g>
<g fill="none" color="black" stroke="currentColor" stroke-width="1.00" stroke-linecap="butt" stroke-linejoin="miter">
	<path stroke='black'  d='M88.5,129.1 L97.5,129.1  '/>	<g transform="translate(80.2,133.0)" stroke="none" fill="black" font-family="Arial" font-size="12.00"  text-anchor="end">
		<text><tspan font-family="Arial" > 25000</tspan></text>
	</g>
</g>
<g fill="none" color="black" stroke="currentColor" stroke-width="1.00" stroke-linecap="butt" stroke-linejoin="miter">
</g>
<g fill="none" color="black" stroke="black" stroke-width="0.50" stroke-linecap="butt" stroke-linejoin="miter">
</g>
<g fill="none" color="gray" stroke="currentColor" stroke-width="0.50" stroke-linecap="butt" stroke-linejoin="miter">
	<path stroke='gray' stroke-dasharray='2,4' class="gridline"  d='M88.5,66.1 L507.2,66.1  '/></g>
<g fill="none" color="gray" stroke="gray" stroke-width="1.00" stroke-linecap="butt" stroke-linejoin="miter">
</g>
<g fill="none" color="black" stroke="currentColor" stroke-width="1.00" stroke-linecap="butt" stroke-linejoin="miter">
	<path stroke='black'  d='M88.5,66.1 L97.5,66.1  '/>	<g transform="translate(80.2,70.0)" stroke="none" fill="black" font-family="Arial" font-size="12.00"  text-anchor="end">
		<text><tspan font-family="Arial" > 30000</tspan></text>
	</g>
</g>
<g fill="none" color="black" stroke="currentColor" stroke-width="1.00" stroke-linecap="butt" stroke-linejoin="miter">
</g>
<g fill="none" color="black" stroke="black" stroke-width="0.50" stroke-linecap="butt" stroke-linejoin="miter">
</g>
<g fill="none" color="gray" stroke="currentColor" stroke-width="0.50" stroke-linecap="butt" stroke-linejoin="miter">
	<path stroke='gray' stroke-dasharray='2,4' class="gridline"  d='M131.2,444.0 L131.2,147.1 M131.2,75.1 L131.2,66.1  '/></g>
<g fill="none" color="gray" stroke="gray" stroke-width="1.00" stroke-linecap="butt" stroke-linejoin="miter">
</g>
<g fill="none" color="black" stroke="currentColor" stroke-width="1.00" stroke-linecap="butt" stroke-linejoin="miter">
	<path stroke='black'  d='M131.2,444.0 L131.2,435.0 M131.2,66.1 L131.2,75.1  '/>	<g transform="translate(131.2,465.9)" stroke="none" fill="black" font-family="Arial" font-size="12.00"  text-anchor="middle">
		<text><tspan font-family="Arial" >Sep/2017</tspan></text>
	</g>
</g>
<g fill="none" color="black" stroke="currentColor" stroke-width="1.00" stroke-linecap="butt" stroke-linejoin="miter">
</g>
<g fill="none" color="black" stroke="black" stroke-width="0.50" stroke-linecap="butt" stroke-linejoin="miter">
</g>
<g fill="none" color="gray" stroke="currentColor" stroke-width="0.50" stroke-linecap="butt" stroke-linejoin="miter">
	<path stroke='gray' stroke-dasharray='2,4' class="gridline"  d='M215.2,444.0 L215.2,66.1  '/></g>
<g fill="none" color="gray" stroke="gray" stroke-width="1.00" stroke-linecap="butt" stroke-linejoin="miter">
</g>
<g fill="none" color="black" stroke="currentColor" stroke-width="1.00" stroke-linecap="butt" stroke-linejoin="miter">
	<path stroke='black'  d='M215.2,444.0 L215.2,435.0 M215.2,66.1 L215.2,75.1  '/>	<g transform="translate(215.2,465.9)" stroke="none" fill="black" font-family="Arial" font-size="12.00"  text-anchor="middle">
		<text><tspan font-family="Arial" >Nov/2017</tspan></text>
	</g>
</g>
<g fill="none" color="black" stroke="currentColor" stroke-width="1.00" stroke-linecap="butt" stroke-linejoin="miter">
</g>
<g fill="none" color="black" stroke="black" stroke-width="0.50" stroke-linecap="butt" stroke-linejoin="miter">
</g>
<g fill="none" color="gray" stroke="currentColor" stroke-width="0.50" stroke-linecap="butt" stroke-linejoin="miter">
	<path stroke='gray' stroke-dasharray='2,4' class="gridline"  d='M299.2,444.0 L299.2,66.1  '/></g>
<g fill="none" color="gray" stroke="gray" stroke-width="1.00" stroke-linecap="butt" stroke-linejoin="miter">
</g>
<g fill="none" color="black" stroke="currentColor" stroke-width="1.00" stroke-linecap="butt" stroke-linejoin="miter">
	<path stroke='black'  d='M299.2,444.0 L299.2,435.0 M299.2,66.1 L299.2,75.1  '/>	<g transform="translate(299.2,465.9)" stroke="none" fill="black" font-family="Arial" font-size="12.00"  text-anchor="middle">
		<text><tspan font-family="Arial" >Jan/2018</tspan></text>
	</g>
</g>
<g fill="none" color="black" stroke="currentColor" stroke-width="1.00" stroke-linecap="butt" stroke-linejoin="miter">
</g>
<g fill="none" color="black" stroke="black" stroke-width="0.50" stroke-linecap="butt" stroke-linejoin="miter">
</g>
<g fill="none" color="gray" stroke="currentColor" stroke-width="0.50" stroke-linecap="butt" stroke-linejoin="miter">
	<path stroke='gray' stroke-dasharray='2,4' class="gridline"  d='M380.5,444.0 L380.5,66.1  '/></g>
<g fill="none" color="gray" stroke="gray" stroke-width="1.00" stroke-linecap="butt" stroke-linejoin="miter">
</g>
<g fill="none" color="black" stroke="currentColor" stroke-width="1.00" stroke-linecap="butt" stroke-linejoin="miter">
	<path stroke='black'  d='M380.5,444.0 L380.5,435.0 M380.5,66.1 L380.5,75.1  '/>	<g transform="translate(380.5,465.9)" stroke="none" fill="black" font-family="Arial" font-size="12.00"  text-anchor="middle">
		<text><tspan font-family="Arial" >Mar/2018</tspan></text>
	</g>
</g>
<g fill="none" color="black" stroke="currentColor" stroke-width="1.00" stroke-linecap="butt" stroke-linejoin="miter">
</g>
<g fill="none" color="black" stroke="black" stroke-width="0.50" stroke-linecap="butt" stroke-linejoin="miter">
</g>
<g fill="none" color="gray" stroke="currentColor" stroke-width="0.50" stroke-linecap="butt" stroke-linejoin="miter">
	<path stroke='gray' stroke-dasharray='2,4' class="gridline"  d='M464.5,444.0 L464.5,66.1  '/></g>
<g fill="none" color="gray" stroke="gray" stroke-width="1.00" stroke-linecap="butt" stroke-linejoin="miter">
</g>
<g fill="none" color="black" stroke="currentColor" stroke-width="1.00" stroke-linecap="butt" stroke-linejoin="miter">
	<path stroke='black'  d='M464.5,444.0 L464.5,435.0 M464.5,66.1 L464.5,75.1  '/>	<g transform="translate(464.5,465.9)" stroke="none" fill="black" font-family="Arial" font-size="12.00"  text-anchor="middle">
		<text><tspan font-family="Arial" >May/2018</tspan></text>
	</g>
</g>
<g fill="none" color="black" stroke="currentColor" stroke-width="1.00" stroke-linecap="butt" stroke-linejoin="miter">
	<path stroke='black'  d='M507.2,444.0 L498.2,444.0  '/>	<g transform="translate(515.5,447.9)" stroke="none" fill="black" font-family="Arial" font-size="12.00"  text-anchor="start">
		<text><tspan font-family="Arial" > 0</tspan></text>
	</g>
</g>
<g fill="none" color="black" stroke="currentColor" stroke-width="1.00" stroke-linecap="butt" stroke-linejoin="miter">
	<path stroke='black'  d='M507.2,412.5 L498.2,412.5  '/>	<g transform="translate(515.5,416.4)" stroke="none" fill="black" font-family="Arial" font-size="12.00"  text-anchor="start">
		<text><tspan font-family="Arial" > 10</tspan></text>
	</g>
</g>
<g fill="none" color="black" stroke="currentColor" stroke-width="1.00" stroke-linecap="butt" stroke-linejoin="miter">
	<path stroke='black'  d='M507.2,381.0 L498.2,381.0  '/>	<g transform="translate(515.5,384.9)" stroke="none" fill="black" font-family="Arial" font-size="12.00"  text-anchor="start">
		<text><tspan font-family="Arial" > 20</tspan></text>
	</g>
</g>
<g fill="none" color="black" stroke="currentColor" stroke-width="1.00" stroke-linecap="butt" stroke-linejoin="miter">
	<path stroke='black'  d='M507.2,349.5 L498.2,349.5  '/>	<g transform="translate(515.5,353.4)" stroke="none" fill="black" font-family="Arial" font-size="12.00"  text-anchor="start">
		<text><tspan font-family="Arial" > 30</tspan></text>
	</g>
</g>
<g fill="none" color="black" stroke="currentColor" stroke-width="1.00" stroke-linecap="butt" stroke-linejoin="miter">
	<path stroke='black'  d='M507.2,318.0 L498.2,318.0  '/>	<g transform="translate(515.5,321.9)" stroke="none" fill="black" font-family="Arial" font-size="12.00"  text-anchor="start">
		<text><tspan font-family="Arial" > 40</tspan></text>
	</g>
</g>
<g fill="none" color="black" stroke="currentColor" stroke-width="1.00" stroke-linecap="butt" stroke-linejoin="miter">
	<path stroke='black'  d='M507.2,286.5 L498.2,286.5  '/>	<g transform="translate(515.5,290.4)" stroke="none" fill="black" font-family="Arial" font-size="12.00"  text-anchor="start">
		<text><tspan font-family="Arial" > 50</tspan></text>
	</g>
</g>
<g fill="none" color="black" stroke="currentColor" stroke-width="1.00" stroke-linecap="butt" stroke-linejoin="miter">
	<path stroke='black'  d='M507.2,255.0 L498.2,255.0  '/>	<g transform="translate(515.5,258.9)" stroke="none" fill="black" font-family="Arial" font-size="12.00"  text-anchor="start">
		<text><tspan font-family="Arial" > 60</tspan></text>
	</g>
</g>
<g fill="none" color="black" stroke="currentColor" stroke-width="1.00" stroke-linecap="butt" stroke-linejoin="miter">
	<path stroke='black'  d='M507.2,223.6 L498.2,223.6  '/>	<g transform="translate(515.5,227.5)" stroke="none" fill="black" font-family="Arial" font-size="12.00"  text-anchor="start">
		<text><tspan font-family="Arial" > 70</tspan></text>
	</g>
</g>
<g fill="none" color="black" stroke="currentColor" stroke-width="1.00" stroke-linecap="butt" stroke-linejoin="miter">
	<path stroke='black'  d='M507.2,192.1 L498.2,192.1  '/>	<g transform="translate(515.5,196.0)" stroke="none" fill="black" font-family="Arial" font-size="12.00"  text-anchor="start">
		<text><tspan font-family="Arial" > 80</tspan></text>
	</g>
</g>
<g fill="none" color="black" stroke="currentColor" stroke-width="1.00" stroke-linecap="butt" stroke-linejoin="miter">
	<path stroke='black'  d='M507.2,160.6 L498.2,160.6  '/>	<g transform="translate(515.5,164.5)" stroke="none" fill="black" font-family="Arial" font-size="12.00"  text-anchor="start">
		<text><tspan font-family="Arial" > 90</tspan></text>
	</g>
</g>
<g fill="none" color="black" stroke="currentColor" stroke-width="1.00" stroke-linecap="butt" stroke-linejoin="miter">
	<path stroke='black'  d='M507.2,129.1 L498.2,129.1  '/>	<g transform="translate(515.5,133.0)" stroke="none" fill="black" font-family="Arial" font-size="12.00"  text-anchor="start">
		<text><tspan font-family="Arial" > 100</tspan></text>
	</g>
</g>
<g fill="none" color="black" stroke="currentColor" stroke-width="1.00" stroke-linecap="butt" stroke-linejoin="miter">
	<path stroke='black'  d='M507.2,97.6 L498.2,97.6  '/>	<g transform="translate(515.5,101.5)" stroke="none" fill="black" font-family="Arial" font-size="12.00"  text-anchor="start">
		<text><tspan font-family="Arial" > 110</tspan></text>
	</g>
</g>
<g fill="none" color="black" stroke="currentColor" stroke-width="1.00" stroke-linecap="butt" stroke-linejoin="miter">
	<path stroke='black'  d='M507.2,66.1 L498.2,66.1  '/>	<g transform="translate(515.5,70.0)" stroke="none" fill="black" font-family="Arial" font-size="12.00"  text-anchor="start">
		<text><tspan font-family="Arial" > 120</tspan></text>
	</g>
</g>
<g fill="none" color="black" stroke="currentColor" stroke-width="1.00" stroke-linecap="butt" stroke-linejoin="miter">
</g>
<g fill="none" color="black" stroke="currentColor" stroke-width="1.00" stroke-linecap="butt" stroke-linejoin="miter">
	<path stroke='black'  d='M88.5,66.1 L88.5,444.0 L507.2,444.0 L507.2,66.1 L88.5,66.1 Z  '/>	<g transform="translate(256.5,403.8)" stroke="none" fill="black" font-family="Arial" font-size="12.00"  text-anchor="start">
		<text><tspan font-family="Arial" >[1]</tspan></text>
	</g>
	<g transform="translate(341.9,331.4)" stroke="none" fill="black" font-family="Arial" font-size="12.00"  text-anchor="start">
		<text><tspan font-family="Arial" >[2]</tspan></text>
	</g>
</g>
<g fill="none" color="black" stroke="currentColor" stroke-width="1.00" stroke-linecap="butt" stroke-linejoin="miter">
	<g transform="translate(16.3,255.1) rotate(270)" stroke="none" fill="black" font-family="Arial" font-size="12.00"  text-anchor="middle">
		<text><tspan font-family="Arial" >Number of words</tspan></text>
	</g>
</g>
<g fill="none" color="black" stroke="currentColor" stroke-width="1.00" stroke-linecap="butt" stroke-linejoin="miter">
	<g transform="translate(577.5,255.1) rotate(270)" stroke="none" fill="black" font-family="Arial" font-size="12.00"  text-anchor="middle">
		<text><tspan font-family="Arial" >Number of other things</tspan></text>
	</g>
</g>
<g fill="none" color="black" stroke="currentColor" stroke-width="1.00" stroke-linecap="butt" stroke-linejoin="miter">
	<g transform="translate(297.8,33.6)" stroke="none" fill="black" font-family="Arial" font-size="20.00"  text-anchor="middle">
		<text><tspan font-family="Arial" >Meta-thesis</tspan></text>
	</g>
</g>
<g fill="none" color="black" stroke="currentColor" stroke-width="1.00" stroke-linecap="butt" stroke-linejoin="miter">
	<path stroke='black'  d='M96.8,147.1 L96.8,75.1 L213.7,75.1 L213.7,147.1 L96.8,147.1 Z  '/></g>
	<g id="gnuplot_plot_1" ><title>ord</title>
<g fill="none" color="white" stroke="black" stroke-width="3.00" stroke-linecap="butt" stroke-linejoin="miter">
</g>
<g fill="none" color="black" stroke="currentColor" stroke-width="3.00" stroke-linecap="butt" stroke-linejoin="miter">
	<g transform="translate(154.9,88.0)" stroke="none" fill="black" font-family="Arial" font-size="12.00"  text-anchor="end">
		<text><tspan font-family="Arial" >ord</tspan></text>
	</g>
</g>
<g fill="none" color="black" stroke="currentColor" stroke-width="3.00" stroke-linecap="butt" stroke-linejoin="miter">
	<path stroke='gray'  d='M163.2,84.1 L205.4,84.1 M118.8,444.0 L120.2,430.5 L127.1,430.5 L129.8,437.8 L138.1,437.5 L145.0,437.5
		L149.1,437.4 L168.4,433.3 L190.4,431.6 L194.6,427.1 L195.9,427.1 L202.8,427.1 L204.2,427.1 L209.7,427.1
		L227.6,427.1 L241.4,408.9 L242.8,404.7 L245.5,405.3 L246.9,417.2 L252.4,417.2 L260.7,417.2 L271.7,417.2
		L285.5,417.2 L300.6,417.2 L302.0,417.2 L318.5,402.8 L319.9,402.5 L337.8,398.1 L347.4,396.6 L350.2,396.3
		L351.6,345.1 L366.7,340.8 L368.1,330.9 L369.5,325.4 L370.8,319.4 L377.7,309.1 L380.5,304.1 L381.9,290.3
		L384.6,281.4 L397.0,292.0 L398.4,284.0 L399.8,283.5 L406.7,270.4 L408.0,269.7 L409.4,261.7 L412.2,260.7
		L413.5,256.5 L414.9,257.1 L427.3,265.2 L434.2,265.2 L437.0,265.2 L453.5,257.1 L454.9,257.9 L457.6,258.8
		L465.9,251.4 L467.3,255.5 L482.4,260.1 L483.8,252.8 L487.9,243.2 L492.0,236.6 L494.8,231.4 L500.3,228.9
		L501.7,228.7 L504.4,226.5 L505.8,229.2 L505.8,227.8 L507.2,228.0  '/></g>
	</g>
	<g id="gnuplot_plot_2" ><title>sider</title>
<g fill="none" color="white" stroke="gray" stroke-width="1.50" stroke-linecap="butt" stroke-linejoin="miter">
</g>
<g fill="none" color="black" stroke="currentColor" stroke-width="1.50" stroke-linecap="butt" stroke-linejoin="miter">
	<g transform="translate(154.9,106.0)" stroke="none" fill="black" font-family="Arial" font-size="12.00"  text-anchor="end">
		<text><tspan font-family="Arial" >sider</tspan></text>
	</g>
</g>
<g fill="none" color="black" stroke="currentColor" stroke-width="1.50" stroke-linecap="butt" stroke-linejoin="miter">
	<path stroke='rgb(148,   0, 211)'  d='M163.2,102.1 L205.4,102.1 M129.8,399.9 L241.4,374.7 L319.9,346.4 L347.4,346.4 L350.2,340.1 L351.6,314.9
		L366.7,283.4 L368.1,286.5 L369.5,267.6 L370.8,255.0 L377.7,236.2 L380.5,229.9 L381.9,217.3 L384.6,204.7
		L397.0,207.8 L398.4,201.5 L399.8,201.5 L406.7,201.5 L409.4,173.2 L412.2,173.2 L413.5,154.3 L414.9,154.3
		L427.3,148.0 L434.2,148.0 L437.0,148.0 L453.5,154.3 L454.9,148.0 L457.6,160.6 L465.9,148.0 L467.3,122.8
		L482.4,129.1 L483.8,122.8 L487.9,122.8 L492.0,116.5 L494.8,94.4 L500.3,100.7 L501.7,110.2 L504.4,122.8
		L505.8,122.8 L505.8,141.7 L507.2,141.7  '/></g>
	</g>
	<g id="gnuplot_plot_3" ><title>kilder</title>
<g fill="none" color="black" stroke="currentColor" stroke-width="1.50" stroke-linecap="butt" stroke-linejoin="miter">
	<g transform="translate(154.9,124.0)" stroke="none" fill="black" font-family="Arial" font-size="12.00"  text-anchor="end">
		<text><tspan font-family="Arial" >kilder</tspan></text>
	</g>
</g>
<g fill="none" color="black" stroke="currentColor" stroke-width="1.50" stroke-linecap="butt" stroke-linejoin="miter">
	<path stroke='rgb(  0, 158, 115)'  d='M163.2,120.1 L205.4,120.1 M129.8,444.0 L241.4,437.7 L319.9,428.3 L347.4,428.3 L350.2,428.3 L351.6,425.1
		L366.7,418.8 L368.1,412.5 L369.5,406.2 L370.8,403.1 L377.7,403.1 L380.5,399.9 L381.9,396.8 L384.6,396.8
		L397.0,387.3 L398.4,384.2 L399.8,384.2 L406.7,384.2 L408.0,384.2 L409.4,384.2 L412.2,384.2 L413.5,384.2
		L414.9,381.0 L427.3,381.0 L434.2,381.0 L437.0,381.0 L453.5,381.0 L454.9,381.0 L457.6,381.0 L465.9,381.0
		L467.3,377.9 L482.4,377.9 L483.8,377.9 L487.9,374.7 L492.0,374.7 L494.8,371.6 L500.3,371.6 L501.7,371.6
		L504.4,368.4 L505.8,368.4 L507.2,368.4  '/></g>
	</g>
	<g id="gnuplot_plot_4" ><title>figurer</title>
<g fill="none" color="black" stroke="currentColor" stroke-width="1.50" stroke-linecap="butt" stroke-linejoin="miter">
	<g transform="translate(154.9,142.0)" stroke="none" fill="black" font-family="Arial" font-size="12.00"  text-anchor="end">
		<text><tspan font-family="Arial" >figurer</tspan></text>
	</g>
</g>
<g fill="none" color="black" stroke="currentColor" stroke-width="1.50" stroke-linecap="butt" stroke-linejoin="miter">
	<path stroke='rgb( 86, 180, 233)'  d='M163.2,138.1 L205.4,138.1 M129.8,444.0 L241.4,415.7 L319.9,403.1 L347.4,403.1 L350.2,403.1 L351.6,399.9
		L366.7,368.4 L370.8,346.4 L377.7,336.9 L380.5,330.6 L381.9,324.3 L384.6,308.6 L397.0,305.4 L398.4,302.3
		L399.8,308.6 L406.7,308.6 L408.0,302.3 L409.4,292.8 L412.2,289.7 L413.5,289.7 L414.9,299.1 L427.3,299.1
		L434.2,299.1 L437.0,299.1 L453.5,299.1 L454.9,305.4 L457.6,318.0 L465.9,299.1 L467.3,296.0 L482.4,296.0
		L483.8,289.7 L487.9,283.4 L492.0,270.8 L494.8,245.6 L500.3,239.3 L501.7,239.3 L504.4,248.8 L505.8,239.3
		L507.2,239.3  '/></g>
	</g>
<g fill="none" color="white" stroke="rgb( 86, 180, 233)" stroke-width="2.00" stroke-linecap="butt" stroke-linejoin="miter">
</g>
<g fill="none" color="black" stroke="currentColor" stroke-width="2.00" stroke-linecap="butt" stroke-linejoin="miter">
</g>
<g fill="none" color="black" stroke="black" stroke-width="1.00" stroke-linecap="butt" stroke-linejoin="miter">
</g>
<g fill="none" color="black" stroke="currentColor" stroke-width="1.00" stroke-linecap="butt" stroke-linejoin="miter">
	<path stroke='black'  d='M88.5,66.1 L88.5,444.0 L507.2,444.0 L507.2,66.1 L88.5,66.1 Z  '/></g>
<g fill="none" color="black" stroke="currentColor" stroke-width="1.00" stroke-linecap="butt" stroke-linejoin="miter">
</g>
</g>
</svg>

